0=0
1=1
2=2
3=3
4=4
5=5
6=6
7=7
8=8
9=9
a=10
b=11
c=12
d=13
e=14
f=15
g=16
h=17
i=18
j=19
k=20
l=21
m=22
n=23
o=24
P=25
q=26
r=27
s=28
t=29
u=30
v=31
w=32
x=33
y=34
z=35
A=36
B=37
C=39
D=40
E=41
F=42
G=43
H=44
I=45
J=46
K=47
L=48
M=49
N=50
O=51
P=52
Q=53
R=54
S=55
T=56
U=57
V=58
W=59
X=60
Y=61
Z=62
.=63
,=64
?=65
!=66
-=67
+=68
==69
 =70